500 500
1000
291 259
4 439
459 105
227 68
42 403
322 85
30 317
62 355
258 132
115 67
189 121
392 71
383 279
494 218
222 461
470 114
101 339
490 457
57 229
221 270
334 162
394 167
350 96
112 325
12 331
124 240
472 451
72 169
366 433
55 180
111 9
346 81
432 207
484 190
327 104
297 28
411 344
233 27
227 225
220 286
166 168
205 390
337 230
142 149
266 320
90 124
173 40
159 325
315 313
234 142
112 421
498 407
34 95
328 127
218 45
442 141
212 269
14 442
304 456
244 202
65 334
424 6
14 173
355 370
185 407
211 414
490 77
174 244
170 297
355 242
401 14
431 221
377 448
412 404
26 216
21 358
69 31
77 278
497 491
393 360
240 458
442 310
333 28
150 134
95 269
272 6
101 1
300 51
402 202
129 65
261 450
344 468
386 352
345 459
0 395
246 178
403 494
1 443
72 120
387 349
298 277
309 256
444 14
257 67
230 26
375 295
362 327
99 289
113 473
424 481
183 191
134 199
22 93
102 106
0 357
479 282
315 280
267 483
141 87
24 372
94 277
228 474
20 451
316 75
395 212
329 99
195 406
165 106
143 109
233 351
411 151
66 373
47 92
480 82
60 116
148 25
448 52
386 405
463 160
179 71
276 26
211 287
27 380
86 408
114 160
340 31
353 172
460 443
210 354
427 427
471 234
15 278
63 304
150 143
20 260
143 483
430 162
74 384
440 278
346 166
5 71
467 399
275 117
171 276
91 442
194 108
233 251
100 42
11 432
224 223
230 443
388 354
17 357
100 191
98 76
3 431
8 260
421 399
266 116
2 446
132 374
52 77
65 34
250 179
62 32
373 7
54 123
436 62
183 113
381 418
16 480
177 15
439 262
100 472
329 200
275 395
429 277
91 355
391 310
288 483
107 421
202 495
377 384
323 359
216 153
234 83
430 152
196 36
138 303
433 277
349 361
256 478
78 276
32 81
171 372
324 398
311 94
350 112
312 443
385 215
149 470
483 122
160 345
347 439
159 354
172 485
49 329
71 268
308 224
417 100
352 242
187 344
328 335
272 335
301 83
224 195
417 217
127 379
377 134
317 232
429 93
421 316
199 339
348 481
23 82
303 87
25 284
362 407
282 139
293 325
73 12
137 75
130 477
67 331
202 192
390 174
407 185
171 259
321 371
144 488
486 290
312 219
280 136
169 133
354 219
97 237
340 492
159 417
455 345
186 222
272 16
279 330
191 129
180 340
113 103
86 411
495 304
338 283
199 418
295 494
307 434
477 482
94 152
333 415
26 253
304 475
184 421
216 469
10 481
27 150
456 329
19 251
133 186
242 36
154 375
217 37
49 192
415 337
39 296
236 39
296 264
313 359
299 110
226 73
87 368
272 218
391 144
37 478
414 225
349 408
409 297
261 150
36 266
426 492
6 379
430 213
245 487
354 191
15 159
452 22
459 169
448 285
103 498
146 404
154 437
422 314
447 327
129 499
3 163
322 32
184 234
66 208
438 58
473 403
290 346
462 255
272 326
448 240
348 475
46 38
120 21
338 69
456 115
266 417
358 355
188 351
336 420
337 225
102 239
347 45
24 242
114 307
474 167
41 120
378 389
150 27
116 284
411 163
395 497
252 322
291 56
44 434
158 110
418 352
488 223
137 109
127 1
13 377
406 30
94 288
74 145
38 469
204 160
235 52
9 174
329 105
487 25
253 468
198 179
149 364
249 189
131 155
251 40
399 115
270 33
256 365
402 463
248 146
17 75
229 497
375 366
342 314
393 32
122 102
248 45
179 227
380 230
39 384
13 383
217 164
260 119
281 476
418 463
202 23
277 107
450 122
449 151
488 383
346 317
261 219
418 297
366 225
353 29
485 171
424 363
132 134
358 65
237 255
84 366
395 429
325 141
94 57
277 228
242 156
37 196
121 497
246 463
253 55
122 388
478 31
99 413
475 316
264 384
414 232
298 480
421 332
390 318
472 225
131 296
252 256
429 268
325 436
13 360
319 274
2 29
243 7
450 298
0 411
166 278
292 393
314 9
357 57
274 288
107 427
491 27
424 326
136 222
101 331
87 38
302 404
64 140
230 269
236 414
381 92
318 60
59 352
3 358
442 419
410 267
161 224
252 392
283 475
105 417
370 228
196 169
323 127
475 388
328 173
279 88
321 359
407 15
108 430
467 71
322 277
280 182
420 319
376 78
151 172
357 255
163 319
43 152
396 149
236 432
377 115
30 268
140 321
446 302
316 237
283 352
7 33
94 93
448 14
248 4
250 397
237 156
315 23
424 1
315 254
119 458
194 34
193 207
247 11
41 99
373 74
261 413
388 5
247 129
224 450
204 382
401 232
182 479
377 373
452 117
396 444
486 61
118 325
157 472
340 387
345 436
472 149
130 175
135 323
268 310
276 294
277 365
50 237
57 462
352 213
329 374
58 424
202 428
88 199
295 63
347 275
289 336
105 268
409 252
101 7
344 54
105 142
341 101
167 120
11 381
268 195
120 126
57 471
377 48
446 202
86 436
28 204
462 1
4 440
260 281
327 304
361 345
369 275
268 416
82 100
260 467
188 414
295 152
154 163
279 133
390 360
305 398
420 408
26 400
179 340
97 226
360 229
53 463
334 274
256 282
202 461
465 346
442 118
247 113
409 310
346 341
161 126
391 467
499 462
424 461
249 367
236 242
3 33
107 458
361 331
317 380
407 497
431 429
394 459
456 302
160 412
490 368
493 255
65 234
338 86
464 371
350 294
32 334
224 222
342 408
11 289
252 78
492 466
433 164
195 462
72 39
6 122
301 337
377 368
249 247
468 372
120 275
367 446
29 112
464 96
205 171
116 47
290 371
159 412
376 27
321 400
39 375
13 424
364 227
493 195
457 356
473 95
439 138
168 477
210 46
436 321
200 98
257 400
423 458
331 430
177 464
491 221
425 68
333 244
261 442
81 302
119 269
138 348
197 21
108 152
202 182
201 329
91 0
200 440
118 112
1 406
395 63
17 493
364 252
169 371
305 423
215 268
465 133
202 430
460 408
203 402
350 179
227 494
262 162
129 425
367 392
125 149
441 175
406 56
251 144
484 445
351 237
346 278
466 433
364 457
298 269
480 210
409 98
55 215
335 23
231 202
122 244
3 413
298 66
326 290
227 145
179 315
423 257
50 113
333 448
28 329
297 172
126 98
411 414
239 342
120 190
220 228
413 282
322 107
233 432
480 400
106 74
230 152
90 165
287 151
47 441
382 387
494 402
404 450
117 405
2 383
326 483
170 36
425 450
401 140
435 443
379 400
467 128
222 223
442 474
7 245
127 88
295 178
308 333
233 11
378 372
489 328
430 97
73 122
404 193
227 139
264 146
216 103
61 481
419 366
179 180
8 143
397 256
255 238
188 491
228 91
217 389
262 63
454 51
469 369
54 99
319 248
246 367
481 481
372 191
117 326
414 366
332 197
363 346
431 174
342 334
434 412
465 135
422 374
383 153
149 10
11 49
312 79
361 260
396 29
274 274
366 497
374 402
177 351
57 65
199 108
119 295
27 219
165 406
282 111
445 106
97 218
42 106
314 364
54 252
335 103
449 401
399 68
468 437
38 63
458 71
317 318
453 41
390 216
21 92
414 455
477 285
84 167
176 147
455 267
87 312
296 304
229 95
158 218
395 459
251 228
367 219
153 374
289 278
265 0
216 97
342 461
337 380
126 164
391 321
482 270
475 145
274 12
89 357
382 171
320 62
341 186
87 258
132 209
378 398
382 454
51 490
469 335
467 349
469 493
401 163
67 430
245 96
100 276
188 407
118 44
277 280
120 151
292 367
32 107
353 493
438 27
219 485
175 439
45 240
388 388
270 156
495 411
440 491
14 124
109 101
209 474
336 6
212 189
214 315
56 102
461 293
309 74
491 217
377 257
331 161
230 448
19 229
273 120
284 209
210 300
352 407
498 252
284 464
191 212
272 486
224 229
183 286
427 477
347 421
419 222
114 257
293 448
370 260
455 106
233 92
405 5
105 256
249 53
295 57
289 27
26 164
485 345
436 1
264 232
301 296
273 363
289 488
186 95
114 49
381 23
8 84
479 180
81 218
124 427
36 374
181 289
131 392
196 449
271 447
11 369
495 222
305 437
318 41
216 116
69 154
438 245
176 265
18 441
184 304
264 217
376 337
196 427
114 483
231 396
291 236
323 167
37 11
28 285
279 42
361 39
2 7
358 382
435 436
113 365
373 255
265 467
183 294
493 158
26 377
322 335
309 319
324 332
330 271
207 165
237 233
161 142
442 224
214 368
479 313
491 178
370 366
23 36
471 355
483 243
17 369
258 401
219 26
229 183
182 25
52 164
228 447
127 140
93 122
24 458
79 125
178 212
386 144
465 443
295 288
360 474
287 464
147 368
474 260
422 416
494 30
185 453
261 326
450 422
238 383
443 349
331 25
163 392
190 46
15 75
61 286
387 394
164 77
377 263
300 259
165 333
200 108
463 48
439 225
451 59
194 42
205 412
